<?xml version="1.0" encoding="UTF-8"?>
<svg width="16px" height="18px" viewBox="0 0 16 18" version="1.1" xmlns="http://www.w3.org/2000/svg" xmlns:xlink="http://www.w3.org/1999/xlink">
    <!-- Generator: Sketch 63.1 (92452) - https://sketch.com -->
    <title>icons/trash</title>
    <desc>Created with Sketch.</desc>
    <g id="Symbols" stroke="none" stroke-width="1" fill="none" fill-rule="evenodd">
        <g id="assets/card_dashboard" transform="translate(-20.000000, -188.000000)" fill="#393846" fill-rule="nonzero">
            <g id="icons/trash" transform="translate(20.042927, 188.000000)">
                <path d="M9.60390244,-1.77635684e-15 C10.5129754,0.00107519091 11.2496565,0.737756309 11.2507317,1.64682927 L11.2507317,1.64682927 L11.2507317,2.60682927 L15.6409756,2.60682927 C15.7921587,2.60790152 15.9141463,2.73076431 15.9141463,2.88195122 L15.9141463,2.88195122 L15.9141463,3.70731707 C15.9120269,3.85698002 15.7906499,3.97749005 15.6409756,3.97853659 L15.6409756,3.97853659 L14.542439,3.97853659 L14.542439,15.3658537 C14.5392225,16.5768512 13.5583146,17.5577591 12.3473171,17.5609756 L12.3473171,17.5609756 L3.56682927,17.5609756 C2.35659377,17.5566882 1.37686967,16.5760925 1.37365854,15.3658537 L1.37365854,15.3658537 L1.37365854,3.98243902 L0.275121951,3.98243902 C0.123176293,3.98243902 -3.55271368e-14,3.85926273 -3.55271368e-14,3.70731707 L-3.55271368e-14,3.70731707 L-3.55271368e-14,2.88195122 C-3.55271368e-14,2.73000556 0.123176293,2.60682927 0.275121951,2.60682927 L0.275121951,2.60682927 L4.66341463,2.60682927 L4.66341463,1.64682927 C4.66448983,0.737756309 5.40117094,0.00107519091 6.3102439,-1.77635684e-15 L6.3102439,-1.77635684e-15 Z M13.4458537,3.97853659 L2.47219512,3.97853659 L2.47219512,15.3678049 C2.47644779,15.971662 2.9649234,16.4601376 3.56878049,16.4643902 L3.56878049,16.4643902 L12.3492683,16.4643902 C12.9538806,16.4601257 13.442664,15.9704726 13.4458537,15.3658537 L13.4458537,15.3658537 L13.4458537,3.97853659 Z M4.93951219,5.56223776 C5.10915454,5.4642947 5.31816253,5.4642947 5.48780488,5.56223776 C5.65744723,5.66018082 5.76195122,5.84118706 5.76195122,6.03707317 L5.76195122,6.03707317 L5.76195122,14.817561 C5.76195122,15.1203747 5.51647222,15.3658537 5.21365854,15.3658537 C4.91084485,15.3658537 4.66536585,15.1203747 4.66536585,14.817561 L4.66536585,14.817561 L4.66536585,6.03707317 C4.66536585,5.84118706 4.76986984,5.66018082 4.93951219,5.56223776 Z M10.7004878,5.48878049 C11.0033015,5.48878049 11.2487805,5.73425948 11.2487805,6.03707317 L11.2487805,6.03707317 L11.2487805,14.817561 C11.2487805,15.1203747 11.0033015,15.3658537 10.7004878,15.3658537 C10.3976741,15.3658537 10.1521951,15.1203747 10.1521951,14.817561 L10.1521951,14.817561 L10.1521951,6.03707317 C10.1521951,5.73425948 10.3976741,5.48878049 10.7004878,5.48878049 Z M7.68292682,5.56223775 C7.85256917,5.46429469 8.06157717,5.46429469 8.23121952,5.56223775 C8.40086187,5.66018081 8.50536585,5.84118705 8.50536585,6.03707317 L8.50536585,6.03707317 L8.50536585,14.817561 C8.50536585,15.1203747 8.25988686,15.3658537 7.95707317,15.3658537 C7.65425948,15.3658537 7.40878049,15.1203747 7.40878049,14.817561 L7.40878049,14.817561 L7.40878049,6.03707317 C7.40878049,5.84118705 7.51328447,5.66018081 7.68292682,5.56223775 Z M9.60390244,1.09853659 L6.3102439,1.09853659 C6.00787468,1.09960693 5.76302156,1.34446004 5.76195122,1.64682927 L5.76195122,1.64682927 L5.76195122,2.60682927 L10.1521951,2.60682927 L10.1521951,1.64682927 C10.1511248,1.34446004 9.90627167,1.09960693 9.60390244,1.09853659 L9.60390244,1.09853659 Z" id="Combined-Shape"></path>
            </g>
        </g>
    </g>
</svg>