<?xml version="1.0" encoding="UTF-8"?>
<svg width="148px" height="65px" viewBox="0 0 148 65" version="1.1" xmlns="http://www.w3.org/2000/svg" xmlns:xlink="http://www.w3.org/1999/xlink">
    <!-- Generator: Sketch 62 (91390) - https://sketch.com -->
    <title>Combined Shape</title>
    <desc>Created with Sketch.</desc>
    <g id="V1" stroke="none" stroke-width="1" fill="none" fill-rule="evenodd">
        <g id="Login" transform="translate(-1334.000000, -369.000000)" fill="#393846" fill-rule="nonzero">
            <g id="Login-form" transform="translate(1238.000000, 369.000000)">
                <g id="Logo" transform="translate(96.000000, 0.000000)">
                    <path d="M31.5372243,-4.97379915e-14 C35.6732537,-4.97379915e-14 39.7403493,0.897381757 43.738511,2.69214527 C44.7725184,3.2443802 45.7720588,3.4514683 46.7371324,3.31340956 C47.7711397,3.10632147 48.4604779,2.45054249 48.8051471,1.34607264 L48.8051471,1.34607264 L58.4214154,1.34607264 L58.0530503,2.47858567 C57.6782227,3.6046272 57.2840074,4.71125422 56.8704044,5.79846674 C56.3878676,7.24808342 55.870864,8.73221479 55.3193934,10.2508608 C54.3543199,13.2191236 52.9067096,17.7060324 50.9765625,23.7115872 L50.9765625,23.7115872 L45.0827206,23.7115872 L44.9493408,23.2148993 C43.8951081,19.4359011 42.1128217,16.3225688 39.6024816,13.8749025 C37.0519301,11.320816 34.1567096,10.0437727 30.9168199,10.0437727 C26.7118566,10.0437727 23.1272978,12.080139 20.1631434,16.1528716 C17.198989,20.1565748 15.7169118,25.0231451 15.7169118,30.7525825 C15.7169118,36.4820199 17.198989,41.3831049 20.1631434,45.4558374 C23.1272978,49.52857 26.7118566,51.5649363 30.9168199,51.5649363 C33.9499081,51.5649363 36.707261,50.4259518 39.1888787,48.1479827 C41.6704963,45.8700136 43.4972426,42.9017509 44.6691176,39.2431945 L44.6691176,39.2431945 L30.089614,39.2431945 L30.089614,30.2348623 L58.5248162,30.2348623 L58.3807046,30.6565689 C55.7645464,38.3150633 51.9522894,49.6333692 46.9439338,64.6114865 L46.9439338,64.6114865 L37.5344669,64.6114865 L37.7348058,64.0937662 C37.9286822,63.576046 38.103171,63.0583258 38.2582721,62.5406055 C38.4650735,61.9193412 38.7063419,61.2635622 38.9820772,60.5732686 C32.433364,62.3680321 26.1259191,61.9883706 20.0597426,59.434284 C13.9935662,56.8801975 9.13373162,53.014553 5.48023897,47.8373506 C3.55009191,45.0761759 2.10248162,42.0388838 1.13740809,38.7254743 C0.379136029,36.1713877 0,33.5137571 0,30.7525825 C0,29.9242301 0.0344669118,29.0958777 0.103400735,28.2675253 C0.448069853,24.6089689 1.37867647,21.22653 2.89522059,18.1202085 C4.41176471,14.9448577 6.34191176,12.1491684 8.68566176,9.73314059 C13.0284926,5.24623181 18.4053309,2.24345439 24.8161765,0.724808342 C27.0909926,0.241602781 29.3313419,-4.97379915e-14 31.5372243,-4.97379915e-14 Z M98.3398438,32.796875 L98.6215451,32.803559 C99.9236748,32.8659433 101.051128,33.3650174 102.003906,34.3007812 C103.00651,35.3216146 103.507812,36.5429687 103.507812,37.9648437 C103.507812,39.3867187 103.00651,40.6080729 102.003906,41.6289062 C100.983073,42.6315104 99.7617188,43.1328125 98.3398438,43.1328125 L98.3398438,43.1328125 L96.3710938,43.1328125 L96.3710938,47.3164062 L97.546875,47.3164062 L97.4959008,47.464265 C97.3536683,47.8801601 97.1610243,48.4688947 96.9179688,49.2304687 L96.9179688,49.2304687 L91.4492188,49.2304687 L91.4492188,47.3164062 L91.59375,47.3091518 C91.875,47.2801339 92.109375,47.1640625 92.296875,46.9609375 C92.515625,46.7239583 92.625,46.4414062 92.625,46.1132812 L92.625,46.1132812 L92.625,43.1328125 L91.4492188,43.1328125 L91.4492188,41.21875 L91.5688477,41.213623 C91.6850586,41.2033691 91.7910156,41.1777344 91.8867188,41.1367187 C92.0325521,41.0820312 92.1601562,41 92.2695312,40.890625 C92.3789062,40.78125 92.4609375,40.6536458 92.515625,40.5078125 C92.5885417,40.3802083 92.625,40.2434896 92.625,40.0976562 L92.625,40.0976562 L92.625,32.796875 L98.3398438,32.796875 Z M72.828125,32.796875 L72.828125,35.2304687 L73.375,35.2304687 L73.515625,35.2226562 C73.796875,35.1914062 74.078125,35.0664062 74.359375,34.8476562 C74.6692708,34.6106771 74.8789062,34.3372396 74.9882812,34.0273437 C75.0794271,33.7539062 75.2070312,33.34375 75.3710938,32.796875 L75.3710938,32.796875 L76.3007812,33.0703125 L76.765625,33.2275391 L76.765625,33.2275391 L77.2304688,33.3710937 C76.9570312,34.2096354 76.546875,35.4765625 76,37.171875 L76,37.171875 L72.828125,37.171875 L72.828125,41.21875 L74.0039062,41.21875 L73.9529321,41.3723476 C73.8106996,41.802646 73.6180556,42.3985822 73.375,43.1601562 L73.375,43.1601562 L67.90625,43.1601562 L67.90625,41.21875 L68.0507812,41.2114955 C68.3320312,41.1824777 68.5664062,41.0664062 68.7539062,40.8632812 C68.9726562,40.6263021 69.0820312,40.34375 69.0820312,40.015625 L69.0820312,40.015625 L69.0820312,32.796875 L72.828125,32.796875 Z M80.3476562,32.25 C80.7486979,32.3776042 81.359375,32.5690104 82.1796875,32.8242187 L82.1796875,32.8242187 L85.8164062,32.8242187 L86.0313585,32.8310547 C86.3832827,32.8538411 86.703559,32.9335937 86.9921875,33.0703125 C87.3567708,33.2161458 87.6940104,33.4348958 88.0039062,33.7265625 C88.2955729,34.0364583 88.5143229,34.3645833 88.6601562,34.7109375 C88.8059896,35.0755208 88.8789062,35.4674479 88.8789062,35.8867187 L88.8789062,35.8867187 L88.8789062,41.21875 L90.0546875,41.21875 L90.0094522,41.3723476 C89.8816229,41.802646 89.6961806,42.3985822 89.453125,43.1601562 L89.453125,43.1601562 L81.578125,43.1601562 L81.3525956,43.1481792 C80.6113765,43.0849044 79.9756155,42.7881155 79.4453125,42.2578125 C78.84375,41.65625 78.5429688,40.9361979 78.5429688,40.0976562 C78.5429688,39.2773437 78.8346354,38.5664062 79.4179688,37.9648437 C80.0013021,37.3632812 80.7122396,37.0533854 81.5507812,37.0351562 L81.5507812,37.0351562 L85.1601562,37.0351562 L85.1601562,35.8867187 L85.1510417,35.7408854 C85.1388889,35.6436632 85.1145833,35.546441 85.078125,35.4492187 C85.0234375,35.3216146 84.9414062,35.203125 84.8320312,35.09375 C84.7226562,34.984375 84.5950521,34.9023437 84.4492188,34.8476562 C84.3216146,34.7929687 84.1757812,34.765625 84.0117188,34.765625 L84.0117188,34.765625 L81.5507812,34.765625 L81.5172991,34.875558 C81.4458705,35.1121652 81.3476562,35.4492187 81.2226562,35.8867187 C80.8216146,35.7591146 80.2109375,35.5585937 79.390625,35.2851562 C79.5911458,34.6106771 79.9101562,33.5989583 80.3476562,32.25 Z M110.945312,27.546875 L110.900077,27.6947338 C110.772248,28.1106289 110.586806,28.6993634 110.34375,29.4609375 L110.34375,29.4609375 L109.769531,29.4609375 L109.769531,32.796875 L112.640625,32.796875 L112.892795,32.8128255 C113.308015,32.850803 113.697917,32.9457465 114.0625,33.0976562 C114.5,33.2799479 114.901042,33.5533854 115.265625,33.9179687 C115.630208,34.2825521 115.903646,34.6835937 116.085938,35.1210937 C116.268229,35.5585937 116.359375,36.0325521 116.359375,36.5429687 L116.359375,36.5429687 L116.359375,41.21875 L117.535156,41.21875 L117.489921,41.3723476 C117.362092,41.802646 117.176649,42.3985822 116.933594,43.1601562 L116.933594,43.1601562 L112.640625,43.1601562 L112.640625,36.1601562 L112.633789,36.0131836 C112.620117,35.8696289 112.585938,35.7363281 112.53125,35.6132812 C112.458333,35.4492187 112.348958,35.2942708 112.203125,35.1484375 C112.075521,35.0208333 111.929688,34.9205729 111.765625,34.8476562 C111.583333,34.7747396 111.401042,34.7382812 111.21875,34.7382812 L111.21875,34.7382812 L109.769531,34.7382812 L109.769531,41.21875 L110.945312,41.21875 L110.900077,41.3723476 C110.772248,41.802646 110.586806,42.3985822 110.34375,43.1601562 L110.34375,43.1601562 L104.875,43.1601562 L104.875,41.21875 L104.994629,41.213623 C105.11084,41.2033691 105.216797,41.1777344 105.3125,41.1367187 C105.458333,41.0820312 105.585938,41 105.695312,40.890625 C105.804688,40.7630208 105.886719,40.6354167 105.941406,40.5078125 C105.996094,40.3619792 106.023438,40.2161458 106.023438,40.0703125 L106.023438,40.0703125 L106.023438,27.546875 L110.945312,27.546875 Z M125,32.796875 L124.949026,32.9504726 C124.806793,33.380771 124.614149,33.9767072 124.371094,34.7382812 L124.371094,34.7382812 L123.823375,34.7391562 L123.823375,41.2191562 L125,41.21875 L124.954765,41.3723476 C124.826935,41.802646 124.641493,42.3985822 124.398438,43.1601562 L124.398438,43.1601562 L118.929688,43.1601562 L118.929688,41.21875 L120.077375,41.2191562 L120.078125,32.796875 L125,32.796875 Z M131.070312,30.4179687 L131.070312,32.796875 L133.859375,32.796875 L133.808401,32.9504726 C133.666168,33.380771 133.473524,33.9767072 133.230469,34.7382812 L133.230469,34.7382812 L131.070312,34.7382812 L131.070312,41.21875 L131.097656,41.21875 L131.238281,41.2109375 C131.519531,41.1796875 131.800781,41.0546875 132.082031,40.8359375 C132.391927,40.5989583 132.601562,40.3255208 132.710938,40.015625 C132.802083,39.7421875 132.929688,39.3229167 133.09375,38.7578125 C133.403646,38.8671875 133.713542,38.9674479 134.023438,39.0585937 C134.333333,39.1497396 134.643229,39.25 134.953125,39.359375 C134.699219,40.1380208 134.327427,41.2860398 133.837751,42.8034319 L133.837751,42.8034319 L133.722656,43.1601562 L126.148438,43.1601562 L126.148438,41.21875 L126.3125,41.21875 L126.455295,41.1914062 C126.548466,41.1671007 126.637587,41.1306424 126.722656,41.0820312 C126.832031,41.0091146 126.941406,40.9179687 127.050781,40.8085937 C127.141927,40.6992187 127.205729,40.5807292 127.242188,40.453125 C127.296875,40.3255208 127.324219,40.1888021 127.324219,40.0429687 L127.324219,40.0429687 L127.324219,34.7382812 L126.148438,34.7382812 L126.148438,32.796875 L126.175781,32.796875 L126.29541,32.791748 C126.411621,32.7814941 126.517578,32.7558594 126.613281,32.7148437 C126.740885,32.6601562 126.859375,32.5690104 126.96875,32.4414062 C127.096354,32.3320312 127.1875,32.2135417 127.242188,32.0859375 C127.296875,31.9401042 127.324219,31.7851562 127.324219,31.6210937 L127.324219,31.6210937 L127.324219,30.4179687 L131.070312,30.4179687 Z M141.898438,32.8242187 C143.15625,32.8242187 144.277344,33.1614583 145.261719,33.8359375 C146.246094,34.5104167 146.911458,35.3763021 147.257812,36.4335937 C147.09375,36.9986979 146.829427,37.8372396 146.464844,38.9492187 L146.464844,38.9492187 L140.011719,38.9492187 L140.01847,39.158179 C140.054479,39.7055041 140.23452,40.1736111 140.558594,40.5625 C140.923177,41.0182292 141.360677,41.2460937 141.871094,41.2460937 C142.235677,41.2460937 142.563802,41.1367187 142.855469,40.9179687 C143.147135,40.6809896 143.375,40.3802083 143.539062,40.015625 L143.539062,40.015625 L146.109375,40.015625 L146.052409,40.2003852 C145.835178,40.9036006 145.526042,41.890191 145.125,43.1601562 L145.125,43.1601562 L141.898438,43.1601562 L141.59158,43.1534722 C140.173756,43.091088 138.954427,42.5920139 137.933594,41.65625 C136.821615,40.6354167 136.265625,39.4140625 136.265625,37.9921875 C136.265625,36.5703125 136.821615,35.3489583 137.933594,34.328125 C139.027344,33.3255208 140.348958,32.8242187 141.898438,32.8242187 Z M85.1601562,38.9492187 L83.3828125,38.9492187 L83.2527902,38.9564732 C82.9983259,38.9854911 82.7773438,39.1015625 82.5898438,39.3046875 C82.3710938,39.5234375 82.2617188,39.7877604 82.2617188,40.0976562 C82.2617188,40.4075521 82.3710938,40.671875 82.5898438,40.890625 C82.8085938,41.109375 83.0729167,41.21875 83.3828125,41.21875 L83.3828125,41.21875 L85.1601562,41.21875 L85.1601562,38.9492187 Z M97.109375,34.7382812 L96.3710938,34.7382812 L96.3710938,41.21875 L97.109375,41.21875 C97.4739583,41.21875 97.8111979,41.1549479 98.1210938,41.0273437 C98.4309896,40.8815104 98.7135417,40.6809896 98.96875,40.4257812 C99.2239583,40.1705729 99.4153646,39.8880208 99.5429688,39.578125 C99.6705729,39.2682292 99.734375,38.9309896 99.734375,38.5664062 L99.734375,38.5664062 L99.734375,37.3632812 L99.7267188,37.1478125 C99.7063021,36.8648958 99.6450521,36.5994792 99.5429688,36.3515625 C99.4153646,36.0416667 99.2239583,35.7591146 98.96875,35.5039062 C98.7135417,35.2486979 98.4309896,35.0572917 98.1210938,34.9296875 C97.8111979,34.8020833 97.4739583,34.7382812 97.109375,34.7382812 L97.109375,34.7382812 Z M141.871094,34.7382812 C141.360677,34.7382812 140.923177,34.9661458 140.558594,35.421875 C140.19401,35.859375 140.011719,36.3971354 140.011719,37.0351562 L140.011719,37.0351562 L143.757812,37.0351562 C143.757812,36.3971354 143.575521,35.859375 143.210938,35.421875 C142.846354,34.9661458 142.39974,34.7382812 141.871094,34.7382812 Z M123.90625,27.5195312 L123.849459,27.6984791 C123.613882,28.4401581 123.277344,29.492488 122.839844,30.8554687 L122.839844,30.8554687 L120.160156,30.8554687 L120.160156,27.5195312 L123.90625,27.5195312 Z" id="Combined-Shape"></path>
                </g>
            </g>
        </g>
    </g>
</svg>